[gd_scene load_steps=3 format=3 uid="uid://evsy7kw52l7h"]

[ext_resource type="PackedScene" uid="uid://cpl8hg12kw64v" path="res://OLD/entities/Pickup.tscn" id="1_8v5ed"]
[ext_resource type="Texture2D" uid="uid://bckl3yb7nds4t" path="res://OLD/freedoom-sprites/pickups/clipa0.png" id="2_bcpmm"]

[node name="Pickup" instance=ExtResource("1_8v5ed")]
texture = ExtResource("2_bcpmm")
ammo_type = 1
give = 10
console_message = "Picked up some pistol ammo"

[node name="Sprite3D" parent="." index="1"]
transform = Transform3D(1, 0, 0, 0, 1, 0, 0, 0, 1, 0, 0.189253, 0)
texture = ExtResource("2_bcpmm")
