[gd_scene load_steps=5 format=3 uid="uid://b180dqyiojd11"]

[ext_resource type="Texture2D" uid="uid://pdlc7b6sx4gs" path="res://OLD/freedoom-sprites/sky/sky4_double.png" id="1_i4jca"]

[sub_resource type="PanoramaSkyMaterial" id="PanoramaSkyMaterial_aibkl"]
panorama = ExtResource("1_i4jca")
filter = false

[sub_resource type="Sky" id="Sky_162i4"]
sky_material = SubResource("PanoramaSkyMaterial_aibkl")

[sub_resource type="Environment" id="Environment_gus8v"]
background_mode = 2
sky = SubResource("Sky_162i4")
glow_enabled = true
glow_normalized = true
glow_intensity = 8.0
glow_bloom = 0.88

[node name="Node3D" type="Node3D"]

[node name="WorldEnvironment" type="WorldEnvironment" parent="."]
environment = SubResource("Environment_gus8v")
