[gd_scene load_steps=3 format=3 uid="uid://dwvm23fe6lfu"]

[ext_resource type="Script" path="res://NPC/Modules/NavigationController.gd" id="1_mfca5"]

[sub_resource type="ConvexPolygonShape3D" id="ConvexPolygonShape3D_x11th"]
points = PackedVector3Array(0, 0, 0, -66, 25, -51, -66, -25, -51, 66, 25, -51, 66, -25, -51, 15, 0, -2, -15, 0, -2, 15, -15, -5, -15, -15, -5)

[node name="NavController" type="Node3D"]
script = ExtResource("1_mfca5")

[node name="NavigationAgent3D" type="NavigationAgent3D" parent="."]
path_desired_distance = 0.1
target_desired_distance = 1.5
path_height_offset = 0.5
avoidance_enabled = true
radius = 2.0
max_neighbors = 250
time_horizon_agents = 2.0
time_horizon_obstacles = 2.0
debug_enabled = true

[node name="Finger" type="RayCast3D" parent="."]
transform = Transform3D(1, 0, 0, 0, 1, 0, 0, 0, 1, 0, 1.5, 0)
target_position = Vector3(0, 0, -66)
collision_mask = 3

[node name="Detect" type="Area3D" parent="."]
collision_layer = 0
collision_mask = 3

[node name="CollisionShape3D" type="CollisionShape3D" parent="Detect"]
transform = Transform3D(1, 0, 0, 0, 1, 0, 0, 0, 1, 0, 1, 1)
shape = SubResource("ConvexPolygonShape3D_x11th")

[connection signal="target_reached" from="NavigationAgent3D" to="." method="_on_navigation_agent_3d_target_reached"]
[connection signal="body_entered" from="Detect" to="." method="_on_detect_body_entered"]
[connection signal="body_exited" from="Detect" to="." method="_on_detect_body_exited"]
