[gd_scene load_steps=5 format=3 uid="uid://c4skwqps6b1ra"]

[ext_resource type="PackedScene" uid="uid://brf45yye6hkdo" path="res://NPC/nu_ai.tscn" id="1_mupe5"]
[ext_resource type="Script" path="res://NPC/Modules/nu_enemy-behavior.gd" id="2_v2y8v"]

[sub_resource type="Resource" id="Resource_jml26"]
script = ExtResource("2_v2y8v")
health = 0
projectile_attack = false
attack_range = 0
default_chase = "move_toward_object"

[sub_resource type="StandardMaterial3D" id="StandardMaterial3D_mvqkd"]
albedo_color = Color(1, 0, 0, 1)

[node name="NU_AI" instance=ExtResource("1_mupe5")]
enemy_type = SubResource("Resource_jml26")

[node name="MeshInstance3D2" parent="CollisionShape3D/MultiMeshInstance3D" index="1"]
surface_material_override/0 = SubResource("StandardMaterial3D_mvqkd")
